{
    "name": "Portfolio",
    "css": {
        "file": "main.css",
        "src": [],
        "destDev": "reactapp/src/css",
        "destBuild": "build/src/css"
    },
    "js": {
        "file": "script.js",
        "src": [],
        "dest": "build/js"
    },
    "scss": {
        "src": ["./reactapp/src/scss/custom.scss"]
    }
}